{
    "translations": [{
            "sourceWord": "niego",
            "operations": [{
                "method": "replaceWithCasing",
                "stringToReplace": "ni",
                "replacementString": "j"
            }]
        },
        {
            "sourceWord": "prezerwatywa",
            "operations": [{
                "method": "replaceWithCasing",
                "stringToReplace": "prezerwatywa",
                "replacementString": "eros",
                "matchWholeWord": true
            }]
        },
        {
            "sourceWord": "prezerwatyw",
            "operations": [{
                "method": "replaceWithCasing",
                "stringToReplace": "prezerwatyw",
                "replacementString": "erosów",
                "matchWholeWord": true
            }]
        },
        {
            "sourceWord": "prezerwatywach",
            "operations": [{
                "method": "replaceWithCasing",
                "stringToReplace": "prezerwatywach",
                "replacementString": "erosach",
                "matchWholeWord": true
            }]
        },
        {
            "sourceWord": "prezerwatywami",
            "operations": [{
                "method": "replaceWithCasing",
                "stringToReplace": "prezerwatywami",
                "replacementString": "erosami",
                "matchWholeWord": true
            }]
        },
        {
            "sourceWord": "kondom",
            "operations": [{
                "method": "replaceWithCasing",
                "stringToReplace": "kondom",
                "replacementString": "eros"
            }]
        },
        {
            "sourceWord": "więzienie",
            "operations": [{
                "method": "replaceWithCasing",
                "stringToReplace": "więzienie",
                "replacementString": "pierdel",
                "matchWholeWord": true
            }]
        },
        {
            "sourceWord": "więzienia",
            "operations": [{
                "method": "replaceWithCasing",
                "stringToReplace": "więzienia",
                "replacementString": "pierdla",
                "matchWholeWord": true
            }]
        },
        {
            "sourceWord": "więzieniach",
            "operations": [{
                "method": "replaceWithCasing",
                "stringToReplace": "więzieniach",
                "replacementString": "pierdlach",
                "matchWholeWord": true
            }]
        },
        {
            "sourceWord": "więzieniu",
            "operations": [{
                "method": "replaceWithCasing",
                "stringToReplace": "więzieniu",
                "replacementString": "pierdlu",
                "matchWholeWord": true
            }]
        },
        {
            "sourceWord": "więzieniem",
            "operations": [{
                "method": "replaceWithCasing",
                "stringToReplace": "więzieniem",
                "replacementString": "pierdlem",
                "matchWholeWord": true
            }]
        },
        {
            "sourceWord": "choroszcz",
            "operations": [{
                "method": "replaceWithCasing",
                "stringToReplace": "choroszcz",
                "replacementString": "hjuston",
                "matchWholeWord": true
            }]
        },
        {
            "sourceWord": "choroszczy",
            "operations": [{
                "method": "replaceWithCasing",
                "stringToReplace": "choroszczy",
                "replacementString": "hjuston",
                "matchWholeWord": true
            }]
        },
        {
            "sourceWord": "choroszczą",
            "operations": [{
                "method": "replaceWithCasing",
                "stringToReplace": "choroszczą",
                "replacementString": "hjuston",
                "matchWholeWord": true
            }]
        }
    ]
}