{
   "definitions": {},
   "$schema": "http://json-schema.org/draft-07/schema#",
   "$id": "http://example.com/root.json",
   "type": "object",
   "title": "Powitania osoby.",
   "required": [
     "welcomes"
   ],
   "properties": {
     "welcomes": {
       "$id": "#/properties/welcomes",
       "type": "array",
       "title": "Kolekcja powitań osoby.",
       "items": {
         "$id": "#/properties/welcomes/items",
         "type": "string"
       }
     }
   }
 }